<?xml version="1.0" encoding="UTF-8" standalone="no"?>
<!-- Created with Inkscape (http://www.inkscape.org/) -->

<svg
   width="128"
   height="128"
   viewBox="0 0 128 128"
   version="1.1"
   id="svg21"
   inkscape:export-filename="icon-upload.png"
   inkscape:export-xdpi="90"
   inkscape:export-ydpi="90"
   sodipodi:docname="icon-upload.svg"
   inkscape:version="1.2 (dc2aedaf03, 2022-05-15)"
   xmlns:inkscape="http://www.inkscape.org/namespaces/inkscape"
   xmlns:sodipodi="http://sodipodi.sourceforge.net/DTD/sodipodi-0.dtd"
   xmlns="http://www.w3.org/2000/svg"
   xmlns:svg="http://www.w3.org/2000/svg">
  <sodipodi:namedview
     id="namedview23"
     pagecolor="#ffffff"
     bordercolor="#666666"
     borderopacity="1.0"
     inkscape:showpageshadow="2"
     inkscape:pageopacity="0.0"
     inkscape:pagecheckerboard="0"
     inkscape:deskcolor="#d1d1d1"
     inkscape:document-units="px"
     showgrid="false"
     inkscape:zoom="3.3638608"
     inkscape:cx="23.039004"
     inkscape:cy="59.158216"
     inkscape:window-width="1920"
     inkscape:window-height="1011"
     inkscape:window-x="0"
     inkscape:window-y="0"
     inkscape:window-maximized="1"
     inkscape:current-layer="layer1" />
  <defs
     id="defs18" />
  <g
     inkscape:label="Layer 1"
     inkscape:groupmode="layer"
     id="layer1">
    <g
       id="g239"
       transform="scale(8)"
       style="stroke-width:0.125">
      <rect
         style="fill:#999999;fill-opacity:1;stroke-width:0.499999;stroke-linecap:round;stroke-linejoin:round"
         id="rect77"
         width="10"
         height="10"
         x="6"
         y="6" />
      <rect
         style="fill:#808080;fill-opacity:1;stroke-width:0.499999;stroke-linecap:round;stroke-linejoin:round"
         id="rect77-3"
         width="10"
         height="10"
         x="0"
         y="0" />
      <rect
         style="fill:#666666;fill-opacity:1;stroke-width:0.499999;stroke-linecap:round;stroke-linejoin:round"
         id="rect77-6"
         width="10"
         height="10"
         x="3"
         y="3" />
    </g>
  </g>
</svg>
